<svg xmlns="http://www.w3.org/2000/svg" width="12" height="10.5" viewBox="0 0 12 10.5">
  <path id="Icon_awesome-list-alt" data-name="Icon awesome-list-alt" d="M10.875,12.75H1.125A1.125,1.125,0,0,1,0,11.625V3.375A1.125,1.125,0,0,1,1.125,2.25h9.75A1.125,1.125,0,0,1,12,3.375v8.25A1.125,1.125,0,0,1,10.875,12.75ZM3,4.313a.938.938,0,1,0,.938.938A.938.938,0,0,0,3,4.313Zm0,2.25a.938.938,0,1,0,.938.938A.938.938,0,0,0,3,6.563Zm0,2.25a.938.938,0,1,0,.938.938A.938.938,0,0,0,3,8.813ZM9.75,5.625v-.75a.281.281,0,0,0-.281-.281H4.781a.281.281,0,0,0-.281.281v.75a.281.281,0,0,0,.281.281H9.469A.281.281,0,0,0,9.75,5.625Zm0,2.25v-.75a.281.281,0,0,0-.281-.281H4.781a.281.281,0,0,0-.281.281v.75a.281.281,0,0,0,.281.281H9.469A.281.281,0,0,0,9.75,7.875Zm0,2.25v-.75a.281.281,0,0,0-.281-.281H4.781a.281.281,0,0,0-.281.281v.75a.281.281,0,0,0,.281.281H9.469A.281.281,0,0,0,9.75,10.125Z" transform="translate(0 -2.25)"/>
</svg>
