<svg xmlns="http://www.w3.org/2000/svg" width="12" height="10.667" viewBox="0 0 12 10.667">
  <path id="Icon_awesome-map-marked-alt" data-name="Icon awesome-map-marked-alt" d="M6,0A2.625,2.625,0,0,0,3.375,2.625c0,1.172,1.716,3.308,2.373,4.084a.329.329,0,0,0,.5,0C6.909,5.933,8.625,3.8,8.625,2.625A2.625,2.625,0,0,0,6,0ZM6,3.5a.875.875,0,1,1,.875-.875A.875.875,0,0,1,6,3.5ZM.419,4.5A.667.667,0,0,0,0,5.118v5.215a.333.333,0,0,0,.457.31L3.333,9.333V4.477a6.309,6.309,0,0,1-.443-.967ZM6,7.493a1,1,0,0,1-.761-.353C4.83,6.656,4.394,6.106,4,5.541V9.333l4,1.333V5.542c-.394.564-.83,1.115-1.239,1.6A1,1,0,0,1,6,7.493Zm5.543-4.136L8.667,4.667v6L11.581,9.5A.667.667,0,0,0,12,8.882V3.667A.333.333,0,0,0,11.543,3.358Z" fill="#000"/>
</svg>
