<svg id="Mobile" xmlns="http://www.w3.org/2000/svg" width="18" height="18" viewBox="0 0 18 18">
  <rect id="Rectangle_975" data-name="Rectangle 975" width="18" height="18" fill="none"/>
  <path id="Path_259" data-name="Path 259" d="M10.125,0a1.021,1.021,0,0,1,.787.338,1.021,1.021,0,0,1,.338.787v15.75A1.153,1.153,0,0,1,10.125,18h-9a1.021,1.021,0,0,1-.787-.337A1.021,1.021,0,0,1,0,16.875V1.125A1.021,1.021,0,0,1,.338.338,1.021,1.021,0,0,1,1.125,0ZM9.338,13.5V3.038H1.913V13.5Zm-4.5,3.038a1.021,1.021,0,0,0,.787.337,1.021,1.021,0,0,0,.787-.337,1.087,1.087,0,0,0,0-1.575,1.021,1.021,0,0,0-.787-.338,1.021,1.021,0,0,0-.787.338,1.087,1.087,0,0,0,0,1.575Z" transform="translate(3.375)"/>
</svg>
