<!-- <svg id="Capa_1" enable-background="new 0 0 512 512" height="512" viewBox="0 0 512 512" width="512" xmlns="http://www.w3.org/2000/svg"><g><path d="m483.743 91.63-58.597 58.579c-8.118 43.344-61.897 59.855-93.094 28.674-32.039-32.024-13.624-86.349 30.26-93.289l57.696-57.677c-12.344-12.338-33.141-40.029-67.071-21.876-102.125 53.358-33.06-5.144-342.328 303.985-13.593 13.586-14.203 35.071-1.372 47.906 159.61 159.521 149.608 154.84 169.13 153.82 19.187-.988 3.384 9.503 275.336-262.327 13.903-13.896 16.142-21.324 52.277-90.426 17.934-33.506-8.612-53.75-22.237-67.369zm-200.663 214.071c-110.205 110.152-104.327 106.945-113.227 106.945-13.269 0-20.126-16.136-10.628-25.63l102.61-102.56c14.042-14.035 35.317 7.18 21.245 21.245zm0-113.273c-173.185 173.101-160.997 163.582-169.891 163.582-13.263 0-20.113-16.156-10.618-25.63l159.264-159.186c14.061-14.054 35.299 7.187 21.245 21.234z"/><path d="m375.115 115.271c-23.968-3.954-39.014 25.181-21.819 42.366 16.734 16.725 45.316 2.894 42.573-20.636 175.062-175.006 78.373-78.347 111.186-111.15 14.043-14.038-7.185-35.299-21.25-21.236-20.988 20.983-89.751 89.724-110.69 110.656z"/></g></svg> -->

  <svg id="Capa_1" enable-background="new 0 0 512 512" viewBox="0 0 512 512" xmlns="http://www.w3.org/2000/svg">
            <g>
              <path
                d="m483.743 91.63-58.597 58.579c-8.118 43.344-61.897 59.855-93.094 28.674-32.039-32.024-13.624-86.349 30.26-93.289l57.696-57.677c-12.344-12.338-33.141-40.029-67.071-21.876-102.125 53.358-33.06-5.144-342.328 303.985-13.593 13.586-14.203 35.071-1.372 47.906 159.61 159.521 149.608 154.84 169.13 153.82 19.187-.988 3.384 9.503 275.336-262.327 13.903-13.896 16.142-21.324 52.277-90.426 17.934-33.506-8.612-53.75-22.237-67.369zm-200.663 214.071c-110.205 110.152-104.327 106.945-113.227 106.945-13.269 0-20.126-16.136-10.628-25.63l102.61-102.56c14.042-14.035 35.317 7.18 21.245 21.245zm0-113.273c-173.185 173.101-160.997 163.582-169.891 163.582-13.263 0-20.113-16.156-10.618-25.63l159.264-159.186c14.061-14.054 35.299 7.187 21.245 21.234z" />
              <path
                d="m375.115 115.271c-23.968-3.954-39.014 25.181-21.819 42.366 16.734 16.725 45.316 2.894 42.573-20.636 175.062-175.006 78.373-78.347 111.186-111.15 14.043-14.038-7.185-35.299-21.25-21.236-20.988 20.983-89.751 89.724-110.69 110.656z" />
            </g>
          </svg>